{
  "orderedServices": "Заказанные услуги",
  "logo": "МФЮА Услуги",
  "auth": {
    "login": "Логин",
    "password": "Пароль",
    "requiredField": "Необходимо заполнить поле",
    "log_in": "Войти",
    "log_out": "Выйти"
  },
  "services": {
    "title": "Каталог услуг",
    "search": "Найти",
    "service": "Услуга",
    "sendRequest": "Отправить заявку",
    "description": "The fish whines malaria like a mighty furner.",
    "getService": "Получить услугу",
    "serviceDuration": "Время оказания услуги",
    "success": "Запрос на получение услуги успешно отправлен."
  },
  "modal": {
    "back": "Назад",
    "close": "Закрыть"
  },
  "time": {
    "h": "ч",
    "m": "м",
    "s": "с",
    "second": "секунд",
    "minute": "минут",
    "hour": "час",
    "day": "день",
    "days": "дней"
  },
  "searchForm": {
    "placeholder": "Введите название услуги"
  },
  "orders": {
    "title": "Заказанные услуги",
    "noOrders": "У вас нет заказаных услуг",
    "error": "Произошла ошибка",
    "success": "Успешно",
    "table": {
      "download": "Скачать",
      "id": "Номер заказа",
      "title": "Название услуги",
      "status": "Статус",
      "dateOrdered": "Дата заказа",
      "documentUrl": "Прикреплённые документы",
      "orderStatus": {
        "READY": "Готово",
        "REQUESTED": "Запрошено",
        "DECLINED": "Отменёно"
      }
    }

  }
}
